module gitlab.com/glmt/glmt

go 1.15

require (
	github.com/go-git/go-git/v5 v5.1.0
	github.com/rs/zerolog v1.20.0
	github.com/spf13/cobra v1.0.0
	github.com/spf13/pflag v1.0.5
	github.com/yosuke-furukawa/json5 v0.1.1
)
